-------------------------------------------------------------------------------
Test set: mappe.del1.hospital.DepartmentTest
-------------------------------------------------------------------------------
Tests run: 2, Failures: 0, Errors: 0, Skipped: 0, Time elapsed: 0.027 s - in mappe.del1.hospital.DepartmentTest
