mappe\del1\hospital\healthpersonal\doctor\Surgeon.class
mappe\del1\hospital\healthpersonal\Nurse.class
mappe\del1\hospital\Hospital.class
mappe\del1\hospital\healthpersonal\doctor\Doctor.class
mappe\del1\hospital\healthpersonal\doctor\GeneralPractitioner.class
mappe\del1\hospital\HospitalClient.class
mappe\del1\hospital\Patient.class
mappe\del1\hospital\Person.class
mappe\del1\hospital\Employee.class
mappe\del1\hospital\HospitalTestData.class
mappe\del1\hospital\Department.class
mappe\del1\hospital\exception\RemoveException.class
mappe\del1\hospital\Diagnosable.class
